Predicting Property Values
…
dt_wf <- workflow() %>%
  add_model(dt_clf_spec) %>%
  add_recipe(dt_rec)

dt_fit <- dt_wf %>%
  fit(zillow_training)

# Predictions with new dataset
dt_fit %>%
  augment(comp)

# A tibble: 2,502 × 21
      id city   description   home_type latitude longitude garage_spaces has_spa
   <dbl> <chr>  <chr>         <chr>        <dbl>     <dbl>         <dbl> <lgl>  
 1     1 austin "Pride in ow… Single F…     30.4     -97.7             2 FALSE  
 2     2 austin "Enjoy endle… Single F…     30.4     -97.8             0 FALSE  
 3     3 austin "Awesome opp… Single F…     30.2     -97.8             4 TRUE   
 4     4 austin "Gorgeous op… Single F…     30.4     -97.6             2 FALSE  
 5     5 austin "Two miles f… Single F…     30.3     -97.7             0 FALSE  
 6     6 austin "4602 Sherwy… Single F…     30.3     -97.7             0 FALSE  
 7     7 austin "Contemporar… Condo         30.3     -97.7             1 FALSE  
 8     8 austin "Investment … Single F…     30.2     -97.8             0 FALSE  
 9     9 austin "Amazing Sou… Single F…     30.2     -97.8             2 FALSE  
10    10 austin "5217 Bluest… Single F…     30.2     -97.9             0 FALSE  
# ℹ 2,492 more rows
# ℹ 13 more variables: year_built <dbl>, num_of_patio_and_porch_features <dbl>,
#   lot_size_sq_ft <dbl>, avg_school_rating <dbl>,
#   median_students_per_teacher <dbl>, num_of_bathrooms <dbl>,
#   num_of_bedrooms <dbl>, .pred_class <fct>, `.pred_0-250000` <dbl>,
#   `.pred_250000-350000` <dbl>, `.pred_350000-450000` <dbl>,
#   `.pred_450000-650000` <dbl>, `.pred_650000+` <dbl>
…
roc_auc
hand_till
0.8780443
10
0.0026064
Preprocessor1_Model1

# Predictions with new dataset
dt_fit %>%
  augment(comp)

# A tibble: 2,502 × 21
      id city   description   home_type latitude longitude garage_spaces has_spa
   <dbl> <chr>  <chr>         <chr>        <dbl>     <dbl>         <dbl> <lgl>  
 1     1 austin "Pride in ow… Single F…     30.4     -97.7             2 FALSE  
 2     2 austin "Enjoy endle… Single F…     30.4     -97.8             0 FALSE  
 3     3 austin "Awesome opp… Single F…     30.2     -97.8             4 TRUE   
 4     4 austin "Gorgeous op… Single F…     30.4     -97.6             2 FALSE  
 5     5 austin "Two miles f… Single F…     30.3     -97.7             0 FALSE  
 6     6 austin "4602 Sherwy… Single F…     30.3     -97.7             0 FALSE  
 7     7 austin "Contemporar… Condo         30.3     -97.7             1 FALSE  
 8     8 austin "Investment … Single F…     30.2     -97.8             0 FALSE  
 9     9 austin "Amazing Sou… Single F…     30.2     -97.8             2 FALSE  
10    10 austin "5217 Bluest… Single F…     30.2     -97.9             0 FALSE  
# ℹ 2,492 more rows
# ℹ 13 more variables: year_built <dbl>, num_of_patio_and_porch_features <dbl>,
#   lot_size_sq_ft <dbl>, avg_school_rating <dbl>,
#   median_students_per_teacher <dbl>, num_of_bathrooms <dbl>,
#   num_of_bedrooms <dbl>, .pred_class <fct>, `.pred_0-250000` <dbl>,
#   `.pred_250000-350000` <dbl>, `.pred_350000-450000` <dbl>,
#   `.pred_450000-650000` <dbl>, `.pred_650000+` <dbl>
…
